   _____            __ _        _____      _
  / ____|          / _| |      / ____|    (_)
 | |     _ __ __ _| |_| |_ ___| |     ___  _ _ __
 | |    | '__/ _` |  _| __/ __| |    / _ \| | '_ \
 | |____| | | (_| | | | |_\__ \ |___| (_) | | | | |
  \_____|_|  \__,_|_|  \__|___/\_____\___/|_|_| |_|